<?xml version="1.0" encoding="utf-8"?>
    <kml xmlns="http://www.opengis.net/kml/2.2">
      <Document>
        <name>11/1252/1081.kml</name>
        <description></description>
        <Style>
          <ListStyle id="hideChildren">
            <listItemType>checkHideChildren</listItemType>
          </ListStyle>
        </Style>
        <Region>
          <LatLonAltBox>
            <north>5.09765625000000</north>
            <south>5.00976562500000</south>
            <east>-69.87304687500000</east>
            <west>-69.96093750000000</west>
          </LatLonAltBox>
          <Lod>
            <minLodPixels>128</minLodPixels>
            <maxLodPixels>-1</maxLodPixels>
          </Lod>
        </Region>
        <GroundOverlay>
          <drawOrder>22</drawOrder>
          <Icon>
            <href>1081.png</href>
          </Icon>
          <LatLonBox>
            <north>5.09765625000000</north>
            <south>5.00976562500000</south>
            <east>-69.87304687500000</east>
            <west>-69.96093750000000</west>
          </LatLonBox>
        </GroundOverlay>
          </Document>
    </kml>
        