<?xml version="1.0" encoding="utf-8"?>
    <kml xmlns="http://www.opengis.net/kml/2.2">
      <Document>
        <name>10/627/535.kml</name>
        <description></description>
        <Style>
          <ListStyle id="hideChildren">
            <listItemType>checkHideChildren</listItemType>
          </ListStyle>
        </Style>
        <Region>
          <LatLonAltBox>
            <north>4.21875000000000</north>
            <south>4.04296875000000</south>
            <east>-69.60937500000000</east>
            <west>-69.78515625000000</west>
          </LatLonAltBox>
          <Lod>
            <minLodPixels>128</minLodPixels>
            <maxLodPixels>2048</maxLodPixels>
          </Lod>
        </Region>
        <GroundOverlay>
          <drawOrder>20</drawOrder>
          <Icon>
            <href>535.png</href>
          </Icon>
          <LatLonBox>
            <north>4.21875000000000</north>
            <south>4.04296875000000</south>
            <east>-69.60937500000000</east>
            <west>-69.78515625000000</west>
          </LatLonBox>
        </GroundOverlay>
    
        <NetworkLink>
          <name>11/1254/1071.png</name>
          <Region>
            <LatLonAltBox>
              <north>4.21875000000000</north>
              <south>4.13085937500000</south>
              <east>-69.69726562500000</east>
              <west>-69.78515625000000</west>
            </LatLonAltBox>
            <Lod>
              <minLodPixels>128</minLodPixels>
              <maxLodPixels>-1</maxLodPixels>
            </Lod>
          </Region>
          <Link>
            <href>../../11/1254/1071.kml</href>
            <viewRefreshMode>onRegion</viewRefreshMode>
            <viewFormat/>
          </Link>
        </NetworkLink>
            
        <NetworkLink>
          <name>11/1255/1071.png</name>
          <Region>
            <LatLonAltBox>
              <north>4.21875000000000</north>
              <south>4.13085937500000</south>
              <east>-69.60937500000000</east>
              <west>-69.69726562500000</west>
            </LatLonAltBox>
            <Lod>
              <minLodPixels>128</minLodPixels>
              <maxLodPixels>-1</maxLodPixels>
            </Lod>
          </Region>
          <Link>
            <href>../../11/1255/1071.kml</href>
            <viewRefreshMode>onRegion</viewRefreshMode>
            <viewFormat/>
          </Link>
        </NetworkLink>
                  </Document>
    </kml>
        