<?xml version="1.0" encoding="utf-8"?>
    <kml xmlns="http://www.opengis.net/kml/2.2">
      <Document>
        <name>9/314/270.kml</name>
        <description></description>
        <Style>
          <ListStyle id="hideChildren">
            <listItemType>checkHideChildren</listItemType>
          </ListStyle>
        </Style>
        <Region>
          <LatLonAltBox>
            <north>5.27343750000000</north>
            <south>4.92187500000000</south>
            <east>-69.25781250000000</east>
            <west>-69.60937500000000</west>
          </LatLonAltBox>
          <Lod>
            <minLodPixels>128</minLodPixels>
            <maxLodPixels>2048</maxLodPixels>
          </Lod>
        </Region>
        <GroundOverlay>
          <drawOrder>18</drawOrder>
          <Icon>
            <href>270.png</href>
          </Icon>
          <LatLonBox>
            <north>5.27343750000000</north>
            <south>4.92187500000000</south>
            <east>-69.25781250000000</east>
            <west>-69.60937500000000</west>
          </LatLonBox>
        </GroundOverlay>
    
        <NetworkLink>
          <name>10/628/540.png</name>
          <Region>
            <LatLonAltBox>
              <north>5.09765625000000</north>
              <south>4.92187500000000</south>
              <east>-69.43359375000000</east>
              <west>-69.60937500000000</west>
            </LatLonAltBox>
            <Lod>
              <minLodPixels>128</minLodPixels>
              <maxLodPixels>-1</maxLodPixels>
            </Lod>
          </Region>
          <Link>
            <href>../../10/628/540.kml</href>
            <viewRefreshMode>onRegion</viewRefreshMode>
            <viewFormat/>
          </Link>
        </NetworkLink>
            
        <NetworkLink>
          <name>10/629/540.png</name>
          <Region>
            <LatLonAltBox>
              <north>5.09765625000000</north>
              <south>4.92187500000000</south>
              <east>-69.25781250000000</east>
              <west>-69.43359375000000</west>
            </LatLonAltBox>
            <Lod>
              <minLodPixels>128</minLodPixels>
              <maxLodPixels>-1</maxLodPixels>
            </Lod>
          </Region>
          <Link>
            <href>../../10/629/540.kml</href>
            <viewRefreshMode>onRegion</viewRefreshMode>
            <viewFormat/>
          </Link>
        </NetworkLink>
            
        <NetworkLink>
          <name>10/628/541.png</name>
          <Region>
            <LatLonAltBox>
              <north>5.27343750000000</north>
              <south>5.09765625000000</south>
              <east>-69.43359375000000</east>
              <west>-69.60937500000000</west>
            </LatLonAltBox>
            <Lod>
              <minLodPixels>128</minLodPixels>
              <maxLodPixels>-1</maxLodPixels>
            </Lod>
          </Region>
          <Link>
            <href>../../10/628/541.kml</href>
            <viewRefreshMode>onRegion</viewRefreshMode>
            <viewFormat/>
          </Link>
        </NetworkLink>
            
        <NetworkLink>
          <name>10/629/541.png</name>
          <Region>
            <LatLonAltBox>
              <north>5.27343750000000</north>
              <south>5.09765625000000</south>
              <east>-69.25781250000000</east>
              <west>-69.43359375000000</west>
            </LatLonAltBox>
            <Lod>
              <minLodPixels>128</minLodPixels>
              <maxLodPixels>-1</maxLodPixels>
            </Lod>
          </Region>
          <Link>
            <href>../../10/629/541.kml</href>
            <viewRefreshMode>onRegion</viewRefreshMode>
            <viewFormat/>
          </Link>
        </NetworkLink>
                  </Document>
    </kml>
        