<?xml version="1.0" encoding="utf-8"?>
    <kml xmlns="http://www.opengis.net/kml/2.2">
      <Document>
        <name>10/629/540.kml</name>
        <description></description>
        <Style>
          <ListStyle id="hideChildren">
            <listItemType>checkHideChildren</listItemType>
          </ListStyle>
        </Style>
        <Region>
          <LatLonAltBox>
            <north>5.09765625000000</north>
            <south>4.92187500000000</south>
            <east>-69.25781250000000</east>
            <west>-69.43359375000000</west>
          </LatLonAltBox>
          <Lod>
            <minLodPixels>128</minLodPixels>
            <maxLodPixels>2048</maxLodPixels>
          </Lod>
        </Region>
        <GroundOverlay>
          <drawOrder>20</drawOrder>
          <Icon>
            <href>540.png</href>
          </Icon>
          <LatLonBox>
            <north>5.09765625000000</north>
            <south>4.92187500000000</south>
            <east>-69.25781250000000</east>
            <west>-69.43359375000000</west>
          </LatLonBox>
        </GroundOverlay>
    
        <NetworkLink>
          <name>11/1258/1080.png</name>
          <Region>
            <LatLonAltBox>
              <north>5.00976562500000</north>
              <south>4.92187500000000</south>
              <east>-69.34570312500000</east>
              <west>-69.43359375000000</west>
            </LatLonAltBox>
            <Lod>
              <minLodPixels>128</minLodPixels>
              <maxLodPixels>-1</maxLodPixels>
            </Lod>
          </Region>
          <Link>
            <href>../../11/1258/1080.kml</href>
            <viewRefreshMode>onRegion</viewRefreshMode>
            <viewFormat/>
          </Link>
        </NetworkLink>
            
        <NetworkLink>
          <name>11/1258/1081.png</name>
          <Region>
            <LatLonAltBox>
              <north>5.09765625000000</north>
              <south>5.00976562500000</south>
              <east>-69.34570312500000</east>
              <west>-69.43359375000000</west>
            </LatLonAltBox>
            <Lod>
              <minLodPixels>128</minLodPixels>
              <maxLodPixels>-1</maxLodPixels>
            </Lod>
          </Region>
          <Link>
            <href>../../11/1258/1081.kml</href>
            <viewRefreshMode>onRegion</viewRefreshMode>
            <viewFormat/>
          </Link>
        </NetworkLink>
                  </Document>
    </kml>
        