<?xml version="1.0" encoding="utf-8"?>
    <kml xmlns="http://www.opengis.net/kml/2.2">
      <Document>
        <name>11/1248/1078.kml</name>
        <description></description>
        <Style>
          <ListStyle id="hideChildren">
            <listItemType>checkHideChildren</listItemType>
          </ListStyle>
        </Style>
        <Region>
          <LatLonAltBox>
            <north>4.83398437500000</north>
            <south>4.74609375000000</south>
            <east>-70.22460937500000</east>
            <west>-70.31250000000000</west>
          </LatLonAltBox>
          <Lod>
            <minLodPixels>128</minLodPixels>
            <maxLodPixels>-1</maxLodPixels>
          </Lod>
        </Region>
        <GroundOverlay>
          <drawOrder>22</drawOrder>
          <Icon>
            <href>1078.png</href>
          </Icon>
          <LatLonBox>
            <north>4.83398437500000</north>
            <south>4.74609375000000</south>
            <east>-70.22460937500000</east>
            <west>-70.31250000000000</west>
          </LatLonBox>
        </GroundOverlay>
          </Document>
    </kml>
        