<?xml version="1.0" encoding="utf-8"?>
    <kml xmlns="http://www.opengis.net/kml/2.2">
      <Document>
        <name>SubsetMergeSentinel1A2A_fuse_783_lee.tif</name>
        <description></description>
        <Style>
          <ListStyle id="hideChildren">
            <listItemType>checkHideChildren</listItemType>
          </ListStyle>
        </Style>
        <NetworkLink>
          <name>0/0/0.png</name>
          <Region>
            <LatLonAltBox>
              <north>90.00000000000000</north>
              <south>-90.00000000000000</south>
              <east>0.00000000000000</east>
              <west>-180.00000000000000</west>
            </LatLonAltBox>
            <Lod>
              <minLodPixels>128</minLodPixels>
              <maxLodPixels>-1</maxLodPixels>
            </Lod>
          </Region>
          <Link>
            <href>0/0/0.kml</href>
            <viewRefreshMode>onRegion</viewRefreshMode>
            <viewFormat/>
          </Link>
        </NetworkLink>
                  </Document>
    </kml>
        